{
	"schema_version": "2.0",
	"packages": [
		{
			"name": "Bison",
			"details": "https://bitbucket.org/artyom_smirnov/sublime-text-bison-highlighter",
			"labels": ["language syntax"],
			"releases": [
				{
					"sublime_text": "*",
					"details": "https://bitbucket.org/artyom_smirnov/sublime-text-bison-highlighter#tags"
				}
			]
		}
	]
}
